/store/user/yoshin/EmJetAnalysis/Analysis-20170609-v0/QCD_HT1500to2000/QCD_HT1500to2000_TuneCUETP8M1_13TeV-madgraphMLM-pythia8/Analysis-20170609/170609_100407/0000/ntuple_1.root
/store/user/yoshin/EmJetAnalysis/Analysis-20170609-v0/QCD_HT1500to2000/QCD_HT1500to2000_TuneCUETP8M1_13TeV-madgraphMLM-pythia8/Analysis-20170609/170609_100407/0000/ntuple_10.root
/store/user/yoshin/EmJetAnalysis/Analysis-20170609-v0/QCD_HT1500to2000/QCD_HT1500to2000_TuneCUETP8M1_13TeV-madgraphMLM-pythia8/Analysis-20170609/170609_100407/0000/ntuple_100.root
/store/user/yoshin/EmJetAnalysis/Analysis-20170609-v0/QCD_HT1500to2000/QCD_HT1500to2000_TuneCUETP8M1_13TeV-madgraphMLM-pythia8/Analysis-20170609/170609_100407/0000/ntuple_101.root
/store/user/yoshin/EmJetAnalysis/Analysis-20170609-v0/QCD_HT1500to2000/QCD_HT1500to2000_TuneCUETP8M1_13TeV-madgraphMLM-pythia8/Analysis-20170609/170609_100407/0000/ntuple_102.root
/store/user/yoshin/EmJetAnalysis/Analysis-20170609-v0/QCD_HT1500to2000/QCD_HT1500to2000_TuneCUETP8M1_13TeV-madgraphMLM-pythia8/Analysis-20170609/170609_100407/0000/ntuple_103.root
/store/user/yoshin/EmJetAnalysis/Analysis-20170609-v0/QCD_HT1500to2000/QCD_HT1500to2000_TuneCUETP8M1_13TeV-madgraphMLM-pythia8/Analysis-20170609/170609_100407/0000/ntuple_104.root
/store/user/yoshin/EmJetAnalysis/Analysis-20170609-v0/QCD_HT1500to2000/QCD_HT1500to2000_TuneCUETP8M1_13TeV-madgraphMLM-pythia8/Analysis-20170609/170609_100407/0000/ntuple_105.root
/store/user/yoshin/EmJetAnalysis/Analysis-20170609-v0/QCD_HT1500to2000/QCD_HT1500to2000_TuneCUETP8M1_13TeV-madgraphMLM-pythia8/Analysis-20170609/170609_100407/0000/ntuple_106.root
/store/user/yoshin/EmJetAnalysis/Analysis-20170609-v0/QCD_HT1500to2000/QCD_HT1500to2000_TuneCUETP8M1_13TeV-madgraphMLM-pythia8/Analysis-20170609/170609_100407/0000/ntuple_107.root
/store/user/yoshin/EmJetAnalysis/Analysis-20170609-v0/QCD_HT1500to2000/QCD_HT1500to2000_TuneCUETP8M1_13TeV-madgraphMLM-pythia8/Analysis-20170609/170609_100407/0000/ntuple_108.root
/store/user/yoshin/EmJetAnalysis/Analysis-20170609-v0/QCD_HT1500to2000/QCD_HT1500to2000_TuneCUETP8M1_13TeV-madgraphMLM-pythia8/Analysis-20170609/170609_100407/0000/ntuple_109.root
/store/user/yoshin/EmJetAnalysis/Analysis-20170609-v0/QCD_HT1500to2000/QCD_HT1500to2000_TuneCUETP8M1_13TeV-madgraphMLM-pythia8/Analysis-20170609/170609_100407/0000/ntuple_11.root
/store/user/yoshin/EmJetAnalysis/Analysis-20170609-v0/QCD_HT1500to2000/QCD_HT1500to2000_TuneCUETP8M1_13TeV-madgraphMLM-pythia8/Analysis-20170609/170609_100407/0000/ntuple_110.root
/store/user/yoshin/EmJetAnalysis/Analysis-20170609-v0/QCD_HT1500to2000/QCD_HT1500to2000_TuneCUETP8M1_13TeV-madgraphMLM-pythia8/Analysis-20170609/170609_100407/0000/ntuple_111.root
/store/user/yoshin/EmJetAnalysis/Analysis-20170609-v0/QCD_HT1500to2000/QCD_HT1500to2000_TuneCUETP8M1_13TeV-madgraphMLM-pythia8/Analysis-20170609/170609_100407/0000/ntuple_112.root
/store/user/yoshin/EmJetAnalysis/Analysis-20170609-v0/QCD_HT1500to2000/QCD_HT1500to2000_TuneCUETP8M1_13TeV-madgraphMLM-pythia8/Analysis-20170609/170609_100407/0000/ntuple_113.root
/store/user/yoshin/EmJetAnalysis/Analysis-20170609-v0/QCD_HT1500to2000/QCD_HT1500to2000_TuneCUETP8M1_13TeV-madgraphMLM-pythia8/Analysis-20170609/170609_100407/0000/ntuple_114.root
/store/user/yoshin/EmJetAnalysis/Analysis-20170609-v0/QCD_HT1500to2000/QCD_HT1500to2000_TuneCUETP8M1_13TeV-madgraphMLM-pythia8/Analysis-20170609/170609_100407/0000/ntuple_115.root
/store/user/yoshin/EmJetAnalysis/Analysis-20170609-v0/QCD_HT1500to2000/QCD_HT1500to2000_TuneCUETP8M1_13TeV-madgraphMLM-pythia8/Analysis-20170609/170609_100407/0000/ntuple_116.root
/store/user/yoshin/EmJetAnalysis/Analysis-20170609-v0/QCD_HT1500to2000/QCD_HT1500to2000_TuneCUETP8M1_13TeV-madgraphMLM-pythia8/Analysis-20170609/170609_100407/0000/ntuple_117.root
/store/user/yoshin/EmJetAnalysis/Analysis-20170609-v0/QCD_HT1500to2000/QCD_HT1500to2000_TuneCUETP8M1_13TeV-madgraphMLM-pythia8/Analysis-20170609/170609_100407/0000/ntuple_118.root
/store/user/yoshin/EmJetAnalysis/Analysis-20170609-v0/QCD_HT1500to2000/QCD_HT1500to2000_TuneCUETP8M1_13TeV-madgraphMLM-pythia8/Analysis-20170609/170609_100407/0000/ntuple_119.root
/store/user/yoshin/EmJetAnalysis/Analysis-20170609-v0/QCD_HT1500to2000/QCD_HT1500to2000_TuneCUETP8M1_13TeV-madgraphMLM-pythia8/Analysis-20170609/170609_100407/0000/ntuple_120.root
/store/user/yoshin/EmJetAnalysis/Analysis-20170609-v0/QCD_HT1500to2000/QCD_HT1500to2000_TuneCUETP8M1_13TeV-madgraphMLM-pythia8/Analysis-20170609/170609_100407/0000/ntuple_121.root
/store/user/yoshin/EmJetAnalysis/Analysis-20170609-v0/QCD_HT1500to2000/QCD_HT1500to2000_TuneCUETP8M1_13TeV-madgraphMLM-pythia8/Analysis-20170609/170609_100407/0000/ntuple_122.root
/store/user/yoshin/EmJetAnalysis/Analysis-20170609-v0/QCD_HT1500to2000/QCD_HT1500to2000_TuneCUETP8M1_13TeV-madgraphMLM-pythia8/Analysis-20170609/170609_100407/0000/ntuple_123.root
/store/user/yoshin/EmJetAnalysis/Analysis-20170609-v0/QCD_HT1500to2000/QCD_HT1500to2000_TuneCUETP8M1_13TeV-madgraphMLM-pythia8/Analysis-20170609/170609_100407/0000/ntuple_124.root
/store/user/yoshin/EmJetAnalysis/Analysis-20170609-v0/QCD_HT1500to2000/QCD_HT1500to2000_TuneCUETP8M1_13TeV-madgraphMLM-pythia8/Analysis-20170609/170609_100407/0000/ntuple_125.root
/store/user/yoshin/EmJetAnalysis/Analysis-20170609-v0/QCD_HT1500to2000/QCD_HT1500to2000_TuneCUETP8M1_13TeV-madgraphMLM-pythia8/Analysis-20170609/170609_100407/0000/ntuple_126.root
/store/user/yoshin/EmJetAnalysis/Analysis-20170609-v0/QCD_HT1500to2000/QCD_HT1500to2000_TuneCUETP8M1_13TeV-madgraphMLM-pythia8/Analysis-20170609/170609_100407/0000/ntuple_127.root
/store/user/yoshin/EmJetAnalysis/Analysis-20170609-v0/QCD_HT1500to2000/QCD_HT1500to2000_TuneCUETP8M1_13TeV-madgraphMLM-pythia8/Analysis-20170609/170609_100407/0000/ntuple_128.root
/store/user/yoshin/EmJetAnalysis/Analysis-20170609-v0/QCD_HT1500to2000/QCD_HT1500to2000_TuneCUETP8M1_13TeV-madgraphMLM-pythia8/Analysis-20170609/170609_100407/0000/ntuple_129.root
/store/user/yoshin/EmJetAnalysis/Analysis-20170609-v0/QCD_HT1500to2000/QCD_HT1500to2000_TuneCUETP8M1_13TeV-madgraphMLM-pythia8/Analysis-20170609/170609_100407/0000/ntuple_13.root
/store/user/yoshin/EmJetAnalysis/Analysis-20170609-v0/QCD_HT1500to2000/QCD_HT1500to2000_TuneCUETP8M1_13TeV-madgraphMLM-pythia8/Analysis-20170609/170609_100407/0000/ntuple_130.root
/store/user/yoshin/EmJetAnalysis/Analysis-20170609-v0/QCD_HT1500to2000/QCD_HT1500to2000_TuneCUETP8M1_13TeV-madgraphMLM-pythia8/Analysis-20170609/170609_100407/0000/ntuple_131.root
/store/user/yoshin/EmJetAnalysis/Analysis-20170609-v0/QCD_HT1500to2000/QCD_HT1500to2000_TuneCUETP8M1_13TeV-madgraphMLM-pythia8/Analysis-20170609/170609_100407/0000/ntuple_132.root
/store/user/yoshin/EmJetAnalysis/Analysis-20170609-v0/QCD_HT1500to2000/QCD_HT1500to2000_TuneCUETP8M1_13TeV-madgraphMLM-pythia8/Analysis-20170609/170609_100407/0000/ntuple_133.root
/store/user/yoshin/EmJetAnalysis/Analysis-20170609-v0/QCD_HT1500to2000/QCD_HT1500to2000_TuneCUETP8M1_13TeV-madgraphMLM-pythia8/Analysis-20170609/170609_100407/0000/ntuple_135.root
/store/user/yoshin/EmJetAnalysis/Analysis-20170609-v0/QCD_HT1500to2000/QCD_HT1500to2000_TuneCUETP8M1_13TeV-madgraphMLM-pythia8/Analysis-20170609/170609_100407/0000/ntuple_136.root
/store/user/yoshin/EmJetAnalysis/Analysis-20170609-v0/QCD_HT1500to2000/QCD_HT1500to2000_TuneCUETP8M1_13TeV-madgraphMLM-pythia8/Analysis-20170609/170609_100407/0000/ntuple_137.root
/store/user/yoshin/EmJetAnalysis/Analysis-20170609-v0/QCD_HT1500to2000/QCD_HT1500to2000_TuneCUETP8M1_13TeV-madgraphMLM-pythia8/Analysis-20170609/170609_100407/0000/ntuple_138.root
/store/user/yoshin/EmJetAnalysis/Analysis-20170609-v0/QCD_HT1500to2000/QCD_HT1500to2000_TuneCUETP8M1_13TeV-madgraphMLM-pythia8/Analysis-20170609/170609_100407/0000/ntuple_14.root
/store/user/yoshin/EmJetAnalysis/Analysis-20170609-v0/QCD_HT1500to2000/QCD_HT1500to2000_TuneCUETP8M1_13TeV-madgraphMLM-pythia8/Analysis-20170609/170609_100407/0000/ntuple_140.root
/store/user/yoshin/EmJetAnalysis/Analysis-20170609-v0/QCD_HT1500to2000/QCD_HT1500to2000_TuneCUETP8M1_13TeV-madgraphMLM-pythia8/Analysis-20170609/170609_100407/0000/ntuple_141.root
/store/user/yoshin/EmJetAnalysis/Analysis-20170609-v0/QCD_HT1500to2000/QCD_HT1500to2000_TuneCUETP8M1_13TeV-madgraphMLM-pythia8/Analysis-20170609/170609_100407/0000/ntuple_142.root
/store/user/yoshin/EmJetAnalysis/Analysis-20170609-v0/QCD_HT1500to2000/QCD_HT1500to2000_TuneCUETP8M1_13TeV-madgraphMLM-pythia8/Analysis-20170609/170609_100407/0000/ntuple_143.root
/store/user/yoshin/EmJetAnalysis/Analysis-20170609-v0/QCD_HT1500to2000/QCD_HT1500to2000_TuneCUETP8M1_13TeV-madgraphMLM-pythia8/Analysis-20170609/170609_100407/0000/ntuple_144.root
/store/user/yoshin/EmJetAnalysis/Analysis-20170609-v0/QCD_HT1500to2000/QCD_HT1500to2000_TuneCUETP8M1_13TeV-madgraphMLM-pythia8/Analysis-20170609/170609_100407/0000/ntuple_145.root
/store/user/yoshin/EmJetAnalysis/Analysis-20170609-v0/QCD_HT1500to2000/QCD_HT1500to2000_TuneCUETP8M1_13TeV-madgraphMLM-pythia8/Analysis-20170609/170609_100407/0000/ntuple_146.root
/store/user/yoshin/EmJetAnalysis/Analysis-20170609-v0/QCD_HT1500to2000/QCD_HT1500to2000_TuneCUETP8M1_13TeV-madgraphMLM-pythia8/Analysis-20170609/170609_100407/0000/ntuple_147.root
/store/user/yoshin/EmJetAnalysis/Analysis-20170609-v0/QCD_HT1500to2000/QCD_HT1500to2000_TuneCUETP8M1_13TeV-madgraphMLM-pythia8/Analysis-20170609/170609_100407/0000/ntuple_148.root
/store/user/yoshin/EmJetAnalysis/Analysis-20170609-v0/QCD_HT1500to2000/QCD_HT1500to2000_TuneCUETP8M1_13TeV-madgraphMLM-pythia8/Analysis-20170609/170609_100407/0000/ntuple_149.root
/store/user/yoshin/EmJetAnalysis/Analysis-20170609-v0/QCD_HT1500to2000/QCD_HT1500to2000_TuneCUETP8M1_13TeV-madgraphMLM-pythia8/Analysis-20170609/170609_100407/0000/ntuple_15.root
/store/user/yoshin/EmJetAnalysis/Analysis-20170609-v0/QCD_HT1500to2000/QCD_HT1500to2000_TuneCUETP8M1_13TeV-madgraphMLM-pythia8/Analysis-20170609/170609_100407/0000/ntuple_150.root
/store/user/yoshin/EmJetAnalysis/Analysis-20170609-v0/QCD_HT1500to2000/QCD_HT1500to2000_TuneCUETP8M1_13TeV-madgraphMLM-pythia8/Analysis-20170609/170609_100407/0000/ntuple_151.root
/store/user/yoshin/EmJetAnalysis/Analysis-20170609-v0/QCD_HT1500to2000/QCD_HT1500to2000_TuneCUETP8M1_13TeV-madgraphMLM-pythia8/Analysis-20170609/170609_100407/0000/ntuple_153.root
/store/user/yoshin/EmJetAnalysis/Analysis-20170609-v0/QCD_HT1500to2000/QCD_HT1500to2000_TuneCUETP8M1_13TeV-madgraphMLM-pythia8/Analysis-20170609/170609_100407/0000/ntuple_154.root
/store/user/yoshin/EmJetAnalysis/Analysis-20170609-v0/QCD_HT1500to2000/QCD_HT1500to2000_TuneCUETP8M1_13TeV-madgraphMLM-pythia8/Analysis-20170609/170609_100407/0000/ntuple_156.root
/store/user/yoshin/EmJetAnalysis/Analysis-20170609-v0/QCD_HT1500to2000/QCD_HT1500to2000_TuneCUETP8M1_13TeV-madgraphMLM-pythia8/Analysis-20170609/170609_100407/0000/ntuple_157.root
/store/user/yoshin/EmJetAnalysis/Analysis-20170609-v0/QCD_HT1500to2000/QCD_HT1500to2000_TuneCUETP8M1_13TeV-madgraphMLM-pythia8/Analysis-20170609/170609_100407/0000/ntuple_158.root
/store/user/yoshin/EmJetAnalysis/Analysis-20170609-v0/QCD_HT1500to2000/QCD_HT1500to2000_TuneCUETP8M1_13TeV-madgraphMLM-pythia8/Analysis-20170609/170609_100407/0000/ntuple_159.root
/store/user/yoshin/EmJetAnalysis/Analysis-20170609-v0/QCD_HT1500to2000/QCD_HT1500to2000_TuneCUETP8M1_13TeV-madgraphMLM-pythia8/Analysis-20170609/170609_100407/0000/ntuple_16.root
/store/user/yoshin/EmJetAnalysis/Analysis-20170609-v0/QCD_HT1500to2000/QCD_HT1500to2000_TuneCUETP8M1_13TeV-madgraphMLM-pythia8/Analysis-20170609/170609_100407/0000/ntuple_160.root
/store/user/yoshin/EmJetAnalysis/Analysis-20170609-v0/QCD_HT1500to2000/QCD_HT1500to2000_TuneCUETP8M1_13TeV-madgraphMLM-pythia8/Analysis-20170609/170609_100407/0000/ntuple_161.root
/store/user/yoshin/EmJetAnalysis/Analysis-20170609-v0/QCD_HT1500to2000/QCD_HT1500to2000_TuneCUETP8M1_13TeV-madgraphMLM-pythia8/Analysis-20170609/170609_100407/0000/ntuple_162.root
/store/user/yoshin/EmJetAnalysis/Analysis-20170609-v0/QCD_HT1500to2000/QCD_HT1500to2000_TuneCUETP8M1_13TeV-madgraphMLM-pythia8/Analysis-20170609/170609_100407/0000/ntuple_163.root
/store/user/yoshin/EmJetAnalysis/Analysis-20170609-v0/QCD_HT1500to2000/QCD_HT1500to2000_TuneCUETP8M1_13TeV-madgraphMLM-pythia8/Analysis-20170609/170609_100407/0000/ntuple_164.root
/store/user/yoshin/EmJetAnalysis/Analysis-20170609-v0/QCD_HT1500to2000/QCD_HT1500to2000_TuneCUETP8M1_13TeV-madgraphMLM-pythia8/Analysis-20170609/170609_100407/0000/ntuple_165.root
/store/user/yoshin/EmJetAnalysis/Analysis-20170609-v0/QCD_HT1500to2000/QCD_HT1500to2000_TuneCUETP8M1_13TeV-madgraphMLM-pythia8/Analysis-20170609/170609_100407/0000/ntuple_166.root
/store/user/yoshin/EmJetAnalysis/Analysis-20170609-v0/QCD_HT1500to2000/QCD_HT1500to2000_TuneCUETP8M1_13TeV-madgraphMLM-pythia8/Analysis-20170609/170609_100407/0000/ntuple_167.root
/store/user/yoshin/EmJetAnalysis/Analysis-20170609-v0/QCD_HT1500to2000/QCD_HT1500to2000_TuneCUETP8M1_13TeV-madgraphMLM-pythia8/Analysis-20170609/170609_100407/0000/ntuple_168.root
/store/user/yoshin/EmJetAnalysis/Analysis-20170609-v0/QCD_HT1500to2000/QCD_HT1500to2000_TuneCUETP8M1_13TeV-madgraphMLM-pythia8/Analysis-20170609/170609_100407/0000/ntuple_169.root
/store/user/yoshin/EmJetAnalysis/Analysis-20170609-v0/QCD_HT1500to2000/QCD_HT1500to2000_TuneCUETP8M1_13TeV-madgraphMLM-pythia8/Analysis-20170609/170609_100407/0000/ntuple_170.root
/store/user/yoshin/EmJetAnalysis/Analysis-20170609-v0/QCD_HT1500to2000/QCD_HT1500to2000_TuneCUETP8M1_13TeV-madgraphMLM-pythia8/Analysis-20170609/170609_100407/0000/ntuple_171.root
/store/user/yoshin/EmJetAnalysis/Analysis-20170609-v0/QCD_HT1500to2000/QCD_HT1500to2000_TuneCUETP8M1_13TeV-madgraphMLM-pythia8/Analysis-20170609/170609_100407/0000/ntuple_172.root
/store/user/yoshin/EmJetAnalysis/Analysis-20170609-v0/QCD_HT1500to2000/QCD_HT1500to2000_TuneCUETP8M1_13TeV-madgraphMLM-pythia8/Analysis-20170609/170609_100407/0000/ntuple_173.root
/store/user/yoshin/EmJetAnalysis/Analysis-20170609-v0/QCD_HT1500to2000/QCD_HT1500to2000_TuneCUETP8M1_13TeV-madgraphMLM-pythia8/Analysis-20170609/170609_100407/0000/ntuple_174.root
/store/user/yoshin/EmJetAnalysis/Analysis-20170609-v0/QCD_HT1500to2000/QCD_HT1500to2000_TuneCUETP8M1_13TeV-madgraphMLM-pythia8/Analysis-20170609/170609_100407/0000/ntuple_175.root
/store/user/yoshin/EmJetAnalysis/Analysis-20170609-v0/QCD_HT1500to2000/QCD_HT1500to2000_TuneCUETP8M1_13TeV-madgraphMLM-pythia8/Analysis-20170609/170609_100407/0000/ntuple_176.root
/store/user/yoshin/EmJetAnalysis/Analysis-20170609-v0/QCD_HT1500to2000/QCD_HT1500to2000_TuneCUETP8M1_13TeV-madgraphMLM-pythia8/Analysis-20170609/170609_100407/0000/ntuple_177.root
/store/user/yoshin/EmJetAnalysis/Analysis-20170609-v0/QCD_HT1500to2000/QCD_HT1500to2000_TuneCUETP8M1_13TeV-madgraphMLM-pythia8/Analysis-20170609/170609_100407/0000/ntuple_178.root
/store/user/yoshin/EmJetAnalysis/Analysis-20170609-v0/QCD_HT1500to2000/QCD_HT1500to2000_TuneCUETP8M1_13TeV-madgraphMLM-pythia8/Analysis-20170609/170609_100407/0000/ntuple_179.root
/store/user/yoshin/EmJetAnalysis/Analysis-20170609-v0/QCD_HT1500to2000/QCD_HT1500to2000_TuneCUETP8M1_13TeV-madgraphMLM-pythia8/Analysis-20170609/170609_100407/0000/ntuple_180.root
/store/user/yoshin/EmJetAnalysis/Analysis-20170609-v0/QCD_HT1500to2000/QCD_HT1500to2000_TuneCUETP8M1_13TeV-madgraphMLM-pythia8/Analysis-20170609/170609_100407/0000/ntuple_181.root
/store/user/yoshin/EmJetAnalysis/Analysis-20170609-v0/QCD_HT1500to2000/QCD_HT1500to2000_TuneCUETP8M1_13TeV-madgraphMLM-pythia8/Analysis-20170609/170609_100407/0000/ntuple_182.root
/store/user/yoshin/EmJetAnalysis/Analysis-20170609-v0/QCD_HT1500to2000/QCD_HT1500to2000_TuneCUETP8M1_13TeV-madgraphMLM-pythia8/Analysis-20170609/170609_100407/0000/ntuple_183.root
/store/user/yoshin/EmJetAnalysis/Analysis-20170609-v0/QCD_HT1500to2000/QCD_HT1500to2000_TuneCUETP8M1_13TeV-madgraphMLM-pythia8/Analysis-20170609/170609_100407/0000/ntuple_184.root
/store/user/yoshin/EmJetAnalysis/Analysis-20170609-v0/QCD_HT1500to2000/QCD_HT1500to2000_TuneCUETP8M1_13TeV-madgraphMLM-pythia8/Analysis-20170609/170609_100407/0000/ntuple_185.root
/store/user/yoshin/EmJetAnalysis/Analysis-20170609-v0/QCD_HT1500to2000/QCD_HT1500to2000_TuneCUETP8M1_13TeV-madgraphMLM-pythia8/Analysis-20170609/170609_100407/0000/ntuple_186.root
/store/user/yoshin/EmJetAnalysis/Analysis-20170609-v0/QCD_HT1500to2000/QCD_HT1500to2000_TuneCUETP8M1_13TeV-madgraphMLM-pythia8/Analysis-20170609/170609_100407/0000/ntuple_187.root
/store/user/yoshin/EmJetAnalysis/Analysis-20170609-v0/QCD_HT1500to2000/QCD_HT1500to2000_TuneCUETP8M1_13TeV-madgraphMLM-pythia8/Analysis-20170609/170609_100407/0000/ntuple_188.root
/store/user/yoshin/EmJetAnalysis/Analysis-20170609-v0/QCD_HT1500to2000/QCD_HT1500to2000_TuneCUETP8M1_13TeV-madgraphMLM-pythia8/Analysis-20170609/170609_100407/0000/ntuple_189.root
/store/user/yoshin/EmJetAnalysis/Analysis-20170609-v0/QCD_HT1500to2000/QCD_HT1500to2000_TuneCUETP8M1_13TeV-madgraphMLM-pythia8/Analysis-20170609/170609_100407/0000/ntuple_190.root
/store/user/yoshin/EmJetAnalysis/Analysis-20170609-v0/QCD_HT1500to2000/QCD_HT1500to2000_TuneCUETP8M1_13TeV-madgraphMLM-pythia8/Analysis-20170609/170609_100407/0000/ntuple_191.root
/store/user/yoshin/EmJetAnalysis/Analysis-20170609-v0/QCD_HT1500to2000/QCD_HT1500to2000_TuneCUETP8M1_13TeV-madgraphMLM-pythia8/Analysis-20170609/170609_100407/0000/ntuple_192.root
/store/user/yoshin/EmJetAnalysis/Analysis-20170609-v0/QCD_HT1500to2000/QCD_HT1500to2000_TuneCUETP8M1_13TeV-madgraphMLM-pythia8/Analysis-20170609/170609_100407/0000/ntuple_193.root
/store/user/yoshin/EmJetAnalysis/Analysis-20170609-v0/QCD_HT1500to2000/QCD_HT1500to2000_TuneCUETP8M1_13TeV-madgraphMLM-pythia8/Analysis-20170609/170609_100407/0000/ntuple_194.root
/store/user/yoshin/EmJetAnalysis/Analysis-20170609-v0/QCD_HT1500to2000/QCD_HT1500to2000_TuneCUETP8M1_13TeV-madgraphMLM-pythia8/Analysis-20170609/170609_100407/0000/ntuple_195.root
/store/user/yoshin/EmJetAnalysis/Analysis-20170609-v0/QCD_HT1500to2000/QCD_HT1500to2000_TuneCUETP8M1_13TeV-madgraphMLM-pythia8/Analysis-20170609/170609_100407/0000/ntuple_196.root
/store/user/yoshin/EmJetAnalysis/Analysis-20170609-v0/QCD_HT1500to2000/QCD_HT1500to2000_TuneCUETP8M1_13TeV-madgraphMLM-pythia8/Analysis-20170609/170609_100407/0000/ntuple_197.root
/store/user/yoshin/EmJetAnalysis/Analysis-20170609-v0/QCD_HT1500to2000/QCD_HT1500to2000_TuneCUETP8M1_13TeV-madgraphMLM-pythia8/Analysis-20170609/170609_100407/0000/ntuple_198.root
/store/user/yoshin/EmJetAnalysis/Analysis-20170609-v0/QCD_HT1500to2000/QCD_HT1500to2000_TuneCUETP8M1_13TeV-madgraphMLM-pythia8/Analysis-20170609/170609_100407/0000/ntuple_199.root
/store/user/yoshin/EmJetAnalysis/Analysis-20170609-v0/QCD_HT1500to2000/QCD_HT1500to2000_TuneCUETP8M1_13TeV-madgraphMLM-pythia8/Analysis-20170609/170609_100407/0000/ntuple_2.root
/store/user/yoshin/EmJetAnalysis/Analysis-20170609-v0/QCD_HT1500to2000/QCD_HT1500to2000_TuneCUETP8M1_13TeV-madgraphMLM-pythia8/Analysis-20170609/170609_100407/0000/ntuple_20.root
/store/user/yoshin/EmJetAnalysis/Analysis-20170609-v0/QCD_HT1500to2000/QCD_HT1500to2000_TuneCUETP8M1_13TeV-madgraphMLM-pythia8/Analysis-20170609/170609_100407/0000/ntuple_200.root
/store/user/yoshin/EmJetAnalysis/Analysis-20170609-v0/QCD_HT1500to2000/QCD_HT1500to2000_TuneCUETP8M1_13TeV-madgraphMLM-pythia8/Analysis-20170609/170609_100407/0000/ntuple_201.root
/store/user/yoshin/EmJetAnalysis/Analysis-20170609-v0/QCD_HT1500to2000/QCD_HT1500to2000_TuneCUETP8M1_13TeV-madgraphMLM-pythia8/Analysis-20170609/170609_100407/0000/ntuple_202.root
/store/user/yoshin/EmJetAnalysis/Analysis-20170609-v0/QCD_HT1500to2000/QCD_HT1500to2000_TuneCUETP8M1_13TeV-madgraphMLM-pythia8/Analysis-20170609/170609_100407/0000/ntuple_203.root
/store/user/yoshin/EmJetAnalysis/Analysis-20170609-v0/QCD_HT1500to2000/QCD_HT1500to2000_TuneCUETP8M1_13TeV-madgraphMLM-pythia8/Analysis-20170609/170609_100407/0000/ntuple_204.root
/store/user/yoshin/EmJetAnalysis/Analysis-20170609-v0/QCD_HT1500to2000/QCD_HT1500to2000_TuneCUETP8M1_13TeV-madgraphMLM-pythia8/Analysis-20170609/170609_100407/0000/ntuple_205.root
/store/user/yoshin/EmJetAnalysis/Analysis-20170609-v0/QCD_HT1500to2000/QCD_HT1500to2000_TuneCUETP8M1_13TeV-madgraphMLM-pythia8/Analysis-20170609/170609_100407/0000/ntuple_206.root
/store/user/yoshin/EmJetAnalysis/Analysis-20170609-v0/QCD_HT1500to2000/QCD_HT1500to2000_TuneCUETP8M1_13TeV-madgraphMLM-pythia8/Analysis-20170609/170609_100407/0000/ntuple_207.root
/store/user/yoshin/EmJetAnalysis/Analysis-20170609-v0/QCD_HT1500to2000/QCD_HT1500to2000_TuneCUETP8M1_13TeV-madgraphMLM-pythia8/Analysis-20170609/170609_100407/0000/ntuple_208.root
/store/user/yoshin/EmJetAnalysis/Analysis-20170609-v0/QCD_HT1500to2000/QCD_HT1500to2000_TuneCUETP8M1_13TeV-madgraphMLM-pythia8/Analysis-20170609/170609_100407/0000/ntuple_209.root
/store/user/yoshin/EmJetAnalysis/Analysis-20170609-v0/QCD_HT1500to2000/QCD_HT1500to2000_TuneCUETP8M1_13TeV-madgraphMLM-pythia8/Analysis-20170609/170609_100407/0000/ntuple_21.root
/store/user/yoshin/EmJetAnalysis/Analysis-20170609-v0/QCD_HT1500to2000/QCD_HT1500to2000_TuneCUETP8M1_13TeV-madgraphMLM-pythia8/Analysis-20170609/170609_100407/0000/ntuple_210.root
/store/user/yoshin/EmJetAnalysis/Analysis-20170609-v0/QCD_HT1500to2000/QCD_HT1500to2000_TuneCUETP8M1_13TeV-madgraphMLM-pythia8/Analysis-20170609/170609_100407/0000/ntuple_211.root
/store/user/yoshin/EmJetAnalysis/Analysis-20170609-v0/QCD_HT1500to2000/QCD_HT1500to2000_TuneCUETP8M1_13TeV-madgraphMLM-pythia8/Analysis-20170609/170609_100407/0000/ntuple_212.root
/store/user/yoshin/EmJetAnalysis/Analysis-20170609-v0/QCD_HT1500to2000/QCD_HT1500to2000_TuneCUETP8M1_13TeV-madgraphMLM-pythia8/Analysis-20170609/170609_100407/0000/ntuple_213.root
/store/user/yoshin/EmJetAnalysis/Analysis-20170609-v0/QCD_HT1500to2000/QCD_HT1500to2000_TuneCUETP8M1_13TeV-madgraphMLM-pythia8/Analysis-20170609/170609_100407/0000/ntuple_214.root
/store/user/yoshin/EmJetAnalysis/Analysis-20170609-v0/QCD_HT1500to2000/QCD_HT1500to2000_TuneCUETP8M1_13TeV-madgraphMLM-pythia8/Analysis-20170609/170609_100407/0000/ntuple_215.root
/store/user/yoshin/EmJetAnalysis/Analysis-20170609-v0/QCD_HT1500to2000/QCD_HT1500to2000_TuneCUETP8M1_13TeV-madgraphMLM-pythia8/Analysis-20170609/170609_100407/0000/ntuple_216.root
/store/user/yoshin/EmJetAnalysis/Analysis-20170609-v0/QCD_HT1500to2000/QCD_HT1500to2000_TuneCUETP8M1_13TeV-madgraphMLM-pythia8/Analysis-20170609/170609_100407/0000/ntuple_217.root
/store/user/yoshin/EmJetAnalysis/Analysis-20170609-v0/QCD_HT1500to2000/QCD_HT1500to2000_TuneCUETP8M1_13TeV-madgraphMLM-pythia8/Analysis-20170609/170609_100407/0000/ntuple_218.root
/store/user/yoshin/EmJetAnalysis/Analysis-20170609-v0/QCD_HT1500to2000/QCD_HT1500to2000_TuneCUETP8M1_13TeV-madgraphMLM-pythia8/Analysis-20170609/170609_100407/0000/ntuple_219.root
/store/user/yoshin/EmJetAnalysis/Analysis-20170609-v0/QCD_HT1500to2000/QCD_HT1500to2000_TuneCUETP8M1_13TeV-madgraphMLM-pythia8/Analysis-20170609/170609_100407/0000/ntuple_22.root
/store/user/yoshin/EmJetAnalysis/Analysis-20170609-v0/QCD_HT1500to2000/QCD_HT1500to2000_TuneCUETP8M1_13TeV-madgraphMLM-pythia8/Analysis-20170609/170609_100407/0000/ntuple_220.root
/store/user/yoshin/EmJetAnalysis/Analysis-20170609-v0/QCD_HT1500to2000/QCD_HT1500to2000_TuneCUETP8M1_13TeV-madgraphMLM-pythia8/Analysis-20170609/170609_100407/0000/ntuple_221.root
/store/user/yoshin/EmJetAnalysis/Analysis-20170609-v0/QCD_HT1500to2000/QCD_HT1500to2000_TuneCUETP8M1_13TeV-madgraphMLM-pythia8/Analysis-20170609/170609_100407/0000/ntuple_222.root
/store/user/yoshin/EmJetAnalysis/Analysis-20170609-v0/QCD_HT1500to2000/QCD_HT1500to2000_TuneCUETP8M1_13TeV-madgraphMLM-pythia8/Analysis-20170609/170609_100407/0000/ntuple_223.root
/store/user/yoshin/EmJetAnalysis/Analysis-20170609-v0/QCD_HT1500to2000/QCD_HT1500to2000_TuneCUETP8M1_13TeV-madgraphMLM-pythia8/Analysis-20170609/170609_100407/0000/ntuple_224.root
/store/user/yoshin/EmJetAnalysis/Analysis-20170609-v0/QCD_HT1500to2000/QCD_HT1500to2000_TuneCUETP8M1_13TeV-madgraphMLM-pythia8/Analysis-20170609/170609_100407/0000/ntuple_225.root
/store/user/yoshin/EmJetAnalysis/Analysis-20170609-v0/QCD_HT1500to2000/QCD_HT1500to2000_TuneCUETP8M1_13TeV-madgraphMLM-pythia8/Analysis-20170609/170609_100407/0000/ntuple_226.root
/store/user/yoshin/EmJetAnalysis/Analysis-20170609-v0/QCD_HT1500to2000/QCD_HT1500to2000_TuneCUETP8M1_13TeV-madgraphMLM-pythia8/Analysis-20170609/170609_100407/0000/ntuple_227.root
/store/user/yoshin/EmJetAnalysis/Analysis-20170609-v0/QCD_HT1500to2000/QCD_HT1500to2000_TuneCUETP8M1_13TeV-madgraphMLM-pythia8/Analysis-20170609/170609_100407/0000/ntuple_228.root
/store/user/yoshin/EmJetAnalysis/Analysis-20170609-v0/QCD_HT1500to2000/QCD_HT1500to2000_TuneCUETP8M1_13TeV-madgraphMLM-pythia8/Analysis-20170609/170609_100407/0000/ntuple_229.root
/store/user/yoshin/EmJetAnalysis/Analysis-20170609-v0/QCD_HT1500to2000/QCD_HT1500to2000_TuneCUETP8M1_13TeV-madgraphMLM-pythia8/Analysis-20170609/170609_100407/0000/ntuple_23.root
/store/user/yoshin/EmJetAnalysis/Analysis-20170609-v0/QCD_HT1500to2000/QCD_HT1500to2000_TuneCUETP8M1_13TeV-madgraphMLM-pythia8/Analysis-20170609/170609_100407/0000/ntuple_230.root
/store/user/yoshin/EmJetAnalysis/Analysis-20170609-v0/QCD_HT1500to2000/QCD_HT1500to2000_TuneCUETP8M1_13TeV-madgraphMLM-pythia8/Analysis-20170609/170609_100407/0000/ntuple_231.root
/store/user/yoshin/EmJetAnalysis/Analysis-20170609-v0/QCD_HT1500to2000/QCD_HT1500to2000_TuneCUETP8M1_13TeV-madgraphMLM-pythia8/Analysis-20170609/170609_100407/0000/ntuple_232.root
/store/user/yoshin/EmJetAnalysis/Analysis-20170609-v0/QCD_HT1500to2000/QCD_HT1500to2000_TuneCUETP8M1_13TeV-madgraphMLM-pythia8/Analysis-20170609/170609_100407/0000/ntuple_233.root
/store/user/yoshin/EmJetAnalysis/Analysis-20170609-v0/QCD_HT1500to2000/QCD_HT1500to2000_TuneCUETP8M1_13TeV-madgraphMLM-pythia8/Analysis-20170609/170609_100407/0000/ntuple_234.root
/store/user/yoshin/EmJetAnalysis/Analysis-20170609-v0/QCD_HT1500to2000/QCD_HT1500to2000_TuneCUETP8M1_13TeV-madgraphMLM-pythia8/Analysis-20170609/170609_100407/0000/ntuple_235.root
/store/user/yoshin/EmJetAnalysis/Analysis-20170609-v0/QCD_HT1500to2000/QCD_HT1500to2000_TuneCUETP8M1_13TeV-madgraphMLM-pythia8/Analysis-20170609/170609_100407/0000/ntuple_236.root
/store/user/yoshin/EmJetAnalysis/Analysis-20170609-v0/QCD_HT1500to2000/QCD_HT1500to2000_TuneCUETP8M1_13TeV-madgraphMLM-pythia8/Analysis-20170609/170609_100407/0000/ntuple_238.root
/store/user/yoshin/EmJetAnalysis/Analysis-20170609-v0/QCD_HT1500to2000/QCD_HT1500to2000_TuneCUETP8M1_13TeV-madgraphMLM-pythia8/Analysis-20170609/170609_100407/0000/ntuple_239.root
/store/user/yoshin/EmJetAnalysis/Analysis-20170609-v0/QCD_HT1500to2000/QCD_HT1500to2000_TuneCUETP8M1_13TeV-madgraphMLM-pythia8/Analysis-20170609/170609_100407/0000/ntuple_240.root
/store/user/yoshin/EmJetAnalysis/Analysis-20170609-v0/QCD_HT1500to2000/QCD_HT1500to2000_TuneCUETP8M1_13TeV-madgraphMLM-pythia8/Analysis-20170609/170609_100407/0000/ntuple_241.root
/store/user/yoshin/EmJetAnalysis/Analysis-20170609-v0/QCD_HT1500to2000/QCD_HT1500to2000_TuneCUETP8M1_13TeV-madgraphMLM-pythia8/Analysis-20170609/170609_100407/0000/ntuple_242.root
/store/user/yoshin/EmJetAnalysis/Analysis-20170609-v0/QCD_HT1500to2000/QCD_HT1500to2000_TuneCUETP8M1_13TeV-madgraphMLM-pythia8/Analysis-20170609/170609_100407/0000/ntuple_243.root
/store/user/yoshin/EmJetAnalysis/Analysis-20170609-v0/QCD_HT1500to2000/QCD_HT1500to2000_TuneCUETP8M1_13TeV-madgraphMLM-pythia8/Analysis-20170609/170609_100407/0000/ntuple_244.root
/store/user/yoshin/EmJetAnalysis/Analysis-20170609-v0/QCD_HT1500to2000/QCD_HT1500to2000_TuneCUETP8M1_13TeV-madgraphMLM-pythia8/Analysis-20170609/170609_100407/0000/ntuple_245.root
/store/user/yoshin/EmJetAnalysis/Analysis-20170609-v0/QCD_HT1500to2000/QCD_HT1500to2000_TuneCUETP8M1_13TeV-madgraphMLM-pythia8/Analysis-20170609/170609_100407/0000/ntuple_246.root
/store/user/yoshin/EmJetAnalysis/Analysis-20170609-v0/QCD_HT1500to2000/QCD_HT1500to2000_TuneCUETP8M1_13TeV-madgraphMLM-pythia8/Analysis-20170609/170609_100407/0000/ntuple_247.root
/store/user/yoshin/EmJetAnalysis/Analysis-20170609-v0/QCD_HT1500to2000/QCD_HT1500to2000_TuneCUETP8M1_13TeV-madgraphMLM-pythia8/Analysis-20170609/170609_100407/0000/ntuple_248.root
/store/user/yoshin/EmJetAnalysis/Analysis-20170609-v0/QCD_HT1500to2000/QCD_HT1500to2000_TuneCUETP8M1_13TeV-madgraphMLM-pythia8/Analysis-20170609/170609_100407/0000/ntuple_249.root
/store/user/yoshin/EmJetAnalysis/Analysis-20170609-v0/QCD_HT1500to2000/QCD_HT1500to2000_TuneCUETP8M1_13TeV-madgraphMLM-pythia8/Analysis-20170609/170609_100407/0000/ntuple_25.root
/store/user/yoshin/EmJetAnalysis/Analysis-20170609-v0/QCD_HT1500to2000/QCD_HT1500to2000_TuneCUETP8M1_13TeV-madgraphMLM-pythia8/Analysis-20170609/170609_100407/0000/ntuple_250.root
/store/user/yoshin/EmJetAnalysis/Analysis-20170609-v0/QCD_HT1500to2000/QCD_HT1500to2000_TuneCUETP8M1_13TeV-madgraphMLM-pythia8/Analysis-20170609/170609_100407/0000/ntuple_251.root
/store/user/yoshin/EmJetAnalysis/Analysis-20170609-v0/QCD_HT1500to2000/QCD_HT1500to2000_TuneCUETP8M1_13TeV-madgraphMLM-pythia8/Analysis-20170609/170609_100407/0000/ntuple_252.root
/store/user/yoshin/EmJetAnalysis/Analysis-20170609-v0/QCD_HT1500to2000/QCD_HT1500to2000_TuneCUETP8M1_13TeV-madgraphMLM-pythia8/Analysis-20170609/170609_100407/0000/ntuple_253.root
/store/user/yoshin/EmJetAnalysis/Analysis-20170609-v0/QCD_HT1500to2000/QCD_HT1500to2000_TuneCUETP8M1_13TeV-madgraphMLM-pythia8/Analysis-20170609/170609_100407/0000/ntuple_254.root
/store/user/yoshin/EmJetAnalysis/Analysis-20170609-v0/QCD_HT1500to2000/QCD_HT1500to2000_TuneCUETP8M1_13TeV-madgraphMLM-pythia8/Analysis-20170609/170609_100407/0000/ntuple_255.root
/store/user/yoshin/EmJetAnalysis/Analysis-20170609-v0/QCD_HT1500to2000/QCD_HT1500to2000_TuneCUETP8M1_13TeV-madgraphMLM-pythia8/Analysis-20170609/170609_100407/0000/ntuple_256.root
/store/user/yoshin/EmJetAnalysis/Analysis-20170609-v0/QCD_HT1500to2000/QCD_HT1500to2000_TuneCUETP8M1_13TeV-madgraphMLM-pythia8/Analysis-20170609/170609_100407/0000/ntuple_257.root
/store/user/yoshin/EmJetAnalysis/Analysis-20170609-v0/QCD_HT1500to2000/QCD_HT1500to2000_TuneCUETP8M1_13TeV-madgraphMLM-pythia8/Analysis-20170609/170609_100407/0000/ntuple_258.root
/store/user/yoshin/EmJetAnalysis/Analysis-20170609-v0/QCD_HT1500to2000/QCD_HT1500to2000_TuneCUETP8M1_13TeV-madgraphMLM-pythia8/Analysis-20170609/170609_100407/0000/ntuple_259.root
/store/user/yoshin/EmJetAnalysis/Analysis-20170609-v0/QCD_HT1500to2000/QCD_HT1500to2000_TuneCUETP8M1_13TeV-madgraphMLM-pythia8/Analysis-20170609/170609_100407/0000/ntuple_26.root
/store/user/yoshin/EmJetAnalysis/Analysis-20170609-v0/QCD_HT1500to2000/QCD_HT1500to2000_TuneCUETP8M1_13TeV-madgraphMLM-pythia8/Analysis-20170609/170609_100407/0000/ntuple_260.root
/store/user/yoshin/EmJetAnalysis/Analysis-20170609-v0/QCD_HT1500to2000/QCD_HT1500to2000_TuneCUETP8M1_13TeV-madgraphMLM-pythia8/Analysis-20170609/170609_100407/0000/ntuple_261.root
/store/user/yoshin/EmJetAnalysis/Analysis-20170609-v0/QCD_HT1500to2000/QCD_HT1500to2000_TuneCUETP8M1_13TeV-madgraphMLM-pythia8/Analysis-20170609/170609_100407/0000/ntuple_262.root
/store/user/yoshin/EmJetAnalysis/Analysis-20170609-v0/QCD_HT1500to2000/QCD_HT1500to2000_TuneCUETP8M1_13TeV-madgraphMLM-pythia8/Analysis-20170609/170609_100407/0000/ntuple_263.root
/store/user/yoshin/EmJetAnalysis/Analysis-20170609-v0/QCD_HT1500to2000/QCD_HT1500to2000_TuneCUETP8M1_13TeV-madgraphMLM-pythia8/Analysis-20170609/170609_100407/0000/ntuple_264.root
/store/user/yoshin/EmJetAnalysis/Analysis-20170609-v0/QCD_HT1500to2000/QCD_HT1500to2000_TuneCUETP8M1_13TeV-madgraphMLM-pythia8/Analysis-20170609/170609_100407/0000/ntuple_265.root
/store/user/yoshin/EmJetAnalysis/Analysis-20170609-v0/QCD_HT1500to2000/QCD_HT1500to2000_TuneCUETP8M1_13TeV-madgraphMLM-pythia8/Analysis-20170609/170609_100407/0000/ntuple_266.root
/store/user/yoshin/EmJetAnalysis/Analysis-20170609-v0/QCD_HT1500to2000/QCD_HT1500to2000_TuneCUETP8M1_13TeV-madgraphMLM-pythia8/Analysis-20170609/170609_100407/0000/ntuple_267.root
/store/user/yoshin/EmJetAnalysis/Analysis-20170609-v0/QCD_HT1500to2000/QCD_HT1500to2000_TuneCUETP8M1_13TeV-madgraphMLM-pythia8/Analysis-20170609/170609_100407/0000/ntuple_268.root
/store/user/yoshin/EmJetAnalysis/Analysis-20170609-v0/QCD_HT1500to2000/QCD_HT1500to2000_TuneCUETP8M1_13TeV-madgraphMLM-pythia8/Analysis-20170609/170609_100407/0000/ntuple_269.root
/store/user/yoshin/EmJetAnalysis/Analysis-20170609-v0/QCD_HT1500to2000/QCD_HT1500to2000_TuneCUETP8M1_13TeV-madgraphMLM-pythia8/Analysis-20170609/170609_100407/0000/ntuple_27.root
/store/user/yoshin/EmJetAnalysis/Analysis-20170609-v0/QCD_HT1500to2000/QCD_HT1500to2000_TuneCUETP8M1_13TeV-madgraphMLM-pythia8/Analysis-20170609/170609_100407/0000/ntuple_270.root
/store/user/yoshin/EmJetAnalysis/Analysis-20170609-v0/QCD_HT1500to2000/QCD_HT1500to2000_TuneCUETP8M1_13TeV-madgraphMLM-pythia8/Analysis-20170609/170609_100407/0000/ntuple_271.root
/store/user/yoshin/EmJetAnalysis/Analysis-20170609-v0/QCD_HT1500to2000/QCD_HT1500to2000_TuneCUETP8M1_13TeV-madgraphMLM-pythia8/Analysis-20170609/170609_100407/0000/ntuple_272.root
/store/user/yoshin/EmJetAnalysis/Analysis-20170609-v0/QCD_HT1500to2000/QCD_HT1500to2000_TuneCUETP8M1_13TeV-madgraphMLM-pythia8/Analysis-20170609/170609_100407/0000/ntuple_274.root
/store/user/yoshin/EmJetAnalysis/Analysis-20170609-v0/QCD_HT1500to2000/QCD_HT1500to2000_TuneCUETP8M1_13TeV-madgraphMLM-pythia8/Analysis-20170609/170609_100407/0000/ntuple_275.root
/store/user/yoshin/EmJetAnalysis/Analysis-20170609-v0/QCD_HT1500to2000/QCD_HT1500to2000_TuneCUETP8M1_13TeV-madgraphMLM-pythia8/Analysis-20170609/170609_100407/0000/ntuple_277.root
/store/user/yoshin/EmJetAnalysis/Analysis-20170609-v0/QCD_HT1500to2000/QCD_HT1500to2000_TuneCUETP8M1_13TeV-madgraphMLM-pythia8/Analysis-20170609/170609_100407/0000/ntuple_278.root
/store/user/yoshin/EmJetAnalysis/Analysis-20170609-v0/QCD_HT1500to2000/QCD_HT1500to2000_TuneCUETP8M1_13TeV-madgraphMLM-pythia8/Analysis-20170609/170609_100407/0000/ntuple_279.root
/store/user/yoshin/EmJetAnalysis/Analysis-20170609-v0/QCD_HT1500to2000/QCD_HT1500to2000_TuneCUETP8M1_13TeV-madgraphMLM-pythia8/Analysis-20170609/170609_100407/0000/ntuple_28.root
/store/user/yoshin/EmJetAnalysis/Analysis-20170609-v0/QCD_HT1500to2000/QCD_HT1500to2000_TuneCUETP8M1_13TeV-madgraphMLM-pythia8/Analysis-20170609/170609_100407/0000/ntuple_280.root
/store/user/yoshin/EmJetAnalysis/Analysis-20170609-v0/QCD_HT1500to2000/QCD_HT1500to2000_TuneCUETP8M1_13TeV-madgraphMLM-pythia8/Analysis-20170609/170609_100407/0000/ntuple_281.root
/store/user/yoshin/EmJetAnalysis/Analysis-20170609-v0/QCD_HT1500to2000/QCD_HT1500to2000_TuneCUETP8M1_13TeV-madgraphMLM-pythia8/Analysis-20170609/170609_100407/0000/ntuple_282.root
/store/user/yoshin/EmJetAnalysis/Analysis-20170609-v0/QCD_HT1500to2000/QCD_HT1500to2000_TuneCUETP8M1_13TeV-madgraphMLM-pythia8/Analysis-20170609/170609_100407/0000/ntuple_283.root
/store/user/yoshin/EmJetAnalysis/Analysis-20170609-v0/QCD_HT1500to2000/QCD_HT1500to2000_TuneCUETP8M1_13TeV-madgraphMLM-pythia8/Analysis-20170609/170609_100407/0000/ntuple_284.root
/store/user/yoshin/EmJetAnalysis/Analysis-20170609-v0/QCD_HT1500to2000/QCD_HT1500to2000_TuneCUETP8M1_13TeV-madgraphMLM-pythia8/Analysis-20170609/170609_100407/0000/ntuple_285.root
/store/user/yoshin/EmJetAnalysis/Analysis-20170609-v0/QCD_HT1500to2000/QCD_HT1500to2000_TuneCUETP8M1_13TeV-madgraphMLM-pythia8/Analysis-20170609/170609_100407/0000/ntuple_286.root
/store/user/yoshin/EmJetAnalysis/Analysis-20170609-v0/QCD_HT1500to2000/QCD_HT1500to2000_TuneCUETP8M1_13TeV-madgraphMLM-pythia8/Analysis-20170609/170609_100407/0000/ntuple_287.root
/store/user/yoshin/EmJetAnalysis/Analysis-20170609-v0/QCD_HT1500to2000/QCD_HT1500to2000_TuneCUETP8M1_13TeV-madgraphMLM-pythia8/Analysis-20170609/170609_100407/0000/ntuple_288.root
/store/user/yoshin/EmJetAnalysis/Analysis-20170609-v0/QCD_HT1500to2000/QCD_HT1500to2000_TuneCUETP8M1_13TeV-madgraphMLM-pythia8/Analysis-20170609/170609_100407/0000/ntuple_289.root
/store/user/yoshin/EmJetAnalysis/Analysis-20170609-v0/QCD_HT1500to2000/QCD_HT1500to2000_TuneCUETP8M1_13TeV-madgraphMLM-pythia8/Analysis-20170609/170609_100407/0000/ntuple_29.root
/store/user/yoshin/EmJetAnalysis/Analysis-20170609-v0/QCD_HT1500to2000/QCD_HT1500to2000_TuneCUETP8M1_13TeV-madgraphMLM-pythia8/Analysis-20170609/170609_100407/0000/ntuple_291.root
/store/user/yoshin/EmJetAnalysis/Analysis-20170609-v0/QCD_HT1500to2000/QCD_HT1500to2000_TuneCUETP8M1_13TeV-madgraphMLM-pythia8/Analysis-20170609/170609_100407/0000/ntuple_293.root
/store/user/yoshin/EmJetAnalysis/Analysis-20170609-v0/QCD_HT1500to2000/QCD_HT1500to2000_TuneCUETP8M1_13TeV-madgraphMLM-pythia8/Analysis-20170609/170609_100407/0000/ntuple_295.root
/store/user/yoshin/EmJetAnalysis/Analysis-20170609-v0/QCD_HT1500to2000/QCD_HT1500to2000_TuneCUETP8M1_13TeV-madgraphMLM-pythia8/Analysis-20170609/170609_100407/0000/ntuple_296.root
/store/user/yoshin/EmJetAnalysis/Analysis-20170609-v0/QCD_HT1500to2000/QCD_HT1500to2000_TuneCUETP8M1_13TeV-madgraphMLM-pythia8/Analysis-20170609/170609_100407/0000/ntuple_297.root
/store/user/yoshin/EmJetAnalysis/Analysis-20170609-v0/QCD_HT1500to2000/QCD_HT1500to2000_TuneCUETP8M1_13TeV-madgraphMLM-pythia8/Analysis-20170609/170609_100407/0000/ntuple_298.root
/store/user/yoshin/EmJetAnalysis/Analysis-20170609-v0/QCD_HT1500to2000/QCD_HT1500to2000_TuneCUETP8M1_13TeV-madgraphMLM-pythia8/Analysis-20170609/170609_100407/0000/ntuple_299.root
/store/user/yoshin/EmJetAnalysis/Analysis-20170609-v0/QCD_HT1500to2000/QCD_HT1500to2000_TuneCUETP8M1_13TeV-madgraphMLM-pythia8/Analysis-20170609/170609_100407/0000/ntuple_3.root
/store/user/yoshin/EmJetAnalysis/Analysis-20170609-v0/QCD_HT1500to2000/QCD_HT1500to2000_TuneCUETP8M1_13TeV-madgraphMLM-pythia8/Analysis-20170609/170609_100407/0000/ntuple_30.root
/store/user/yoshin/EmJetAnalysis/Analysis-20170609-v0/QCD_HT1500to2000/QCD_HT1500to2000_TuneCUETP8M1_13TeV-madgraphMLM-pythia8/Analysis-20170609/170609_100407/0000/ntuple_300.root
/store/user/yoshin/EmJetAnalysis/Analysis-20170609-v0/QCD_HT1500to2000/QCD_HT1500to2000_TuneCUETP8M1_13TeV-madgraphMLM-pythia8/Analysis-20170609/170609_100407/0000/ntuple_301.root
/store/user/yoshin/EmJetAnalysis/Analysis-20170609-v0/QCD_HT1500to2000/QCD_HT1500to2000_TuneCUETP8M1_13TeV-madgraphMLM-pythia8/Analysis-20170609/170609_100407/0000/ntuple_302.root
/store/user/yoshin/EmJetAnalysis/Analysis-20170609-v0/QCD_HT1500to2000/QCD_HT1500to2000_TuneCUETP8M1_13TeV-madgraphMLM-pythia8/Analysis-20170609/170609_100407/0000/ntuple_303.root
/store/user/yoshin/EmJetAnalysis/Analysis-20170609-v0/QCD_HT1500to2000/QCD_HT1500to2000_TuneCUETP8M1_13TeV-madgraphMLM-pythia8/Analysis-20170609/170609_100407/0000/ntuple_304.root
/store/user/yoshin/EmJetAnalysis/Analysis-20170609-v0/QCD_HT1500to2000/QCD_HT1500to2000_TuneCUETP8M1_13TeV-madgraphMLM-pythia8/Analysis-20170609/170609_100407/0000/ntuple_305.root
/store/user/yoshin/EmJetAnalysis/Analysis-20170609-v0/QCD_HT1500to2000/QCD_HT1500to2000_TuneCUETP8M1_13TeV-madgraphMLM-pythia8/Analysis-20170609/170609_100407/0000/ntuple_306.root
/store/user/yoshin/EmJetAnalysis/Analysis-20170609-v0/QCD_HT1500to2000/QCD_HT1500to2000_TuneCUETP8M1_13TeV-madgraphMLM-pythia8/Analysis-20170609/170609_100407/0000/ntuple_307.root
/store/user/yoshin/EmJetAnalysis/Analysis-20170609-v0/QCD_HT1500to2000/QCD_HT1500to2000_TuneCUETP8M1_13TeV-madgraphMLM-pythia8/Analysis-20170609/170609_100407/0000/ntuple_308.root
/store/user/yoshin/EmJetAnalysis/Analysis-20170609-v0/QCD_HT1500to2000/QCD_HT1500to2000_TuneCUETP8M1_13TeV-madgraphMLM-pythia8/Analysis-20170609/170609_100407/0000/ntuple_309.root
/store/user/yoshin/EmJetAnalysis/Analysis-20170609-v0/QCD_HT1500to2000/QCD_HT1500to2000_TuneCUETP8M1_13TeV-madgraphMLM-pythia8/Analysis-20170609/170609_100407/0000/ntuple_31.root
/store/user/yoshin/EmJetAnalysis/Analysis-20170609-v0/QCD_HT1500to2000/QCD_HT1500to2000_TuneCUETP8M1_13TeV-madgraphMLM-pythia8/Analysis-20170609/170609_100407/0000/ntuple_310.root
/store/user/yoshin/EmJetAnalysis/Analysis-20170609-v0/QCD_HT1500to2000/QCD_HT1500to2000_TuneCUETP8M1_13TeV-madgraphMLM-pythia8/Analysis-20170609/170609_100407/0000/ntuple_311.root
/store/user/yoshin/EmJetAnalysis/Analysis-20170609-v0/QCD_HT1500to2000/QCD_HT1500to2000_TuneCUETP8M1_13TeV-madgraphMLM-pythia8/Analysis-20170609/170609_100407/0000/ntuple_312.root
/store/user/yoshin/EmJetAnalysis/Analysis-20170609-v0/QCD_HT1500to2000/QCD_HT1500to2000_TuneCUETP8M1_13TeV-madgraphMLM-pythia8/Analysis-20170609/170609_100407/0000/ntuple_315.root
/store/user/yoshin/EmJetAnalysis/Analysis-20170609-v0/QCD_HT1500to2000/QCD_HT1500to2000_TuneCUETP8M1_13TeV-madgraphMLM-pythia8/Analysis-20170609/170609_100407/0000/ntuple_316.root
/store/user/yoshin/EmJetAnalysis/Analysis-20170609-v0/QCD_HT1500to2000/QCD_HT1500to2000_TuneCUETP8M1_13TeV-madgraphMLM-pythia8/Analysis-20170609/170609_100407/0000/ntuple_317.root
/store/user/yoshin/EmJetAnalysis/Analysis-20170609-v0/QCD_HT1500to2000/QCD_HT1500to2000_TuneCUETP8M1_13TeV-madgraphMLM-pythia8/Analysis-20170609/170609_100407/0000/ntuple_318.root
/store/user/yoshin/EmJetAnalysis/Analysis-20170609-v0/QCD_HT1500to2000/QCD_HT1500to2000_TuneCUETP8M1_13TeV-madgraphMLM-pythia8/Analysis-20170609/170609_100407/0000/ntuple_319.root
/store/user/yoshin/EmJetAnalysis/Analysis-20170609-v0/QCD_HT1500to2000/QCD_HT1500to2000_TuneCUETP8M1_13TeV-madgraphMLM-pythia8/Analysis-20170609/170609_100407/0000/ntuple_32.root
/store/user/yoshin/EmJetAnalysis/Analysis-20170609-v0/QCD_HT1500to2000/QCD_HT1500to2000_TuneCUETP8M1_13TeV-madgraphMLM-pythia8/Analysis-20170609/170609_100407/0000/ntuple_321.root
/store/user/yoshin/EmJetAnalysis/Analysis-20170609-v0/QCD_HT1500to2000/QCD_HT1500to2000_TuneCUETP8M1_13TeV-madgraphMLM-pythia8/Analysis-20170609/170609_100407/0000/ntuple_322.root
/store/user/yoshin/EmJetAnalysis/Analysis-20170609-v0/QCD_HT1500to2000/QCD_HT1500to2000_TuneCUETP8M1_13TeV-madgraphMLM-pythia8/Analysis-20170609/170609_100407/0000/ntuple_323.root
/store/user/yoshin/EmJetAnalysis/Analysis-20170609-v0/QCD_HT1500to2000/QCD_HT1500to2000_TuneCUETP8M1_13TeV-madgraphMLM-pythia8/Analysis-20170609/170609_100407/0000/ntuple_324.root
/store/user/yoshin/EmJetAnalysis/Analysis-20170609-v0/QCD_HT1500to2000/QCD_HT1500to2000_TuneCUETP8M1_13TeV-madgraphMLM-pythia8/Analysis-20170609/170609_100407/0000/ntuple_325.root
/store/user/yoshin/EmJetAnalysis/Analysis-20170609-v0/QCD_HT1500to2000/QCD_HT1500to2000_TuneCUETP8M1_13TeV-madgraphMLM-pythia8/Analysis-20170609/170609_100407/0000/ntuple_326.root
/store/user/yoshin/EmJetAnalysis/Analysis-20170609-v0/QCD_HT1500to2000/QCD_HT1500to2000_TuneCUETP8M1_13TeV-madgraphMLM-pythia8/Analysis-20170609/170609_100407/0000/ntuple_327.root
/store/user/yoshin/EmJetAnalysis/Analysis-20170609-v0/QCD_HT1500to2000/QCD_HT1500to2000_TuneCUETP8M1_13TeV-madgraphMLM-pythia8/Analysis-20170609/170609_100407/0000/ntuple_328.root
/store/user/yoshin/EmJetAnalysis/Analysis-20170609-v0/QCD_HT1500to2000/QCD_HT1500to2000_TuneCUETP8M1_13TeV-madgraphMLM-pythia8/Analysis-20170609/170609_100407/0000/ntuple_329.root
/store/user/yoshin/EmJetAnalysis/Analysis-20170609-v0/QCD_HT1500to2000/QCD_HT1500to2000_TuneCUETP8M1_13TeV-madgraphMLM-pythia8/Analysis-20170609/170609_100407/0000/ntuple_33.root
/store/user/yoshin/EmJetAnalysis/Analysis-20170609-v0/QCD_HT1500to2000/QCD_HT1500to2000_TuneCUETP8M1_13TeV-madgraphMLM-pythia8/Analysis-20170609/170609_100407/0000/ntuple_331.root
/store/user/yoshin/EmJetAnalysis/Analysis-20170609-v0/QCD_HT1500to2000/QCD_HT1500to2000_TuneCUETP8M1_13TeV-madgraphMLM-pythia8/Analysis-20170609/170609_100407/0000/ntuple_332.root
/store/user/yoshin/EmJetAnalysis/Analysis-20170609-v0/QCD_HT1500to2000/QCD_HT1500to2000_TuneCUETP8M1_13TeV-madgraphMLM-pythia8/Analysis-20170609/170609_100407/0000/ntuple_333.root
/store/user/yoshin/EmJetAnalysis/Analysis-20170609-v0/QCD_HT1500to2000/QCD_HT1500to2000_TuneCUETP8M1_13TeV-madgraphMLM-pythia8/Analysis-20170609/170609_100407/0000/ntuple_334.root
/store/user/yoshin/EmJetAnalysis/Analysis-20170609-v0/QCD_HT1500to2000/QCD_HT1500to2000_TuneCUETP8M1_13TeV-madgraphMLM-pythia8/Analysis-20170609/170609_100407/0000/ntuple_335.root
/store/user/yoshin/EmJetAnalysis/Analysis-20170609-v0/QCD_HT1500to2000/QCD_HT1500to2000_TuneCUETP8M1_13TeV-madgraphMLM-pythia8/Analysis-20170609/170609_100407/0000/ntuple_336.root
/store/user/yoshin/EmJetAnalysis/Analysis-20170609-v0/QCD_HT1500to2000/QCD_HT1500to2000_TuneCUETP8M1_13TeV-madgraphMLM-pythia8/Analysis-20170609/170609_100407/0000/ntuple_337.root
/store/user/yoshin/EmJetAnalysis/Analysis-20170609-v0/QCD_HT1500to2000/QCD_HT1500to2000_TuneCUETP8M1_13TeV-madgraphMLM-pythia8/Analysis-20170609/170609_100407/0000/ntuple_338.root
/store/user/yoshin/EmJetAnalysis/Analysis-20170609-v0/QCD_HT1500to2000/QCD_HT1500to2000_TuneCUETP8M1_13TeV-madgraphMLM-pythia8/Analysis-20170609/170609_100407/0000/ntuple_339.root
/store/user/yoshin/EmJetAnalysis/Analysis-20170609-v0/QCD_HT1500to2000/QCD_HT1500to2000_TuneCUETP8M1_13TeV-madgraphMLM-pythia8/Analysis-20170609/170609_100407/0000/ntuple_34.root
/store/user/yoshin/EmJetAnalysis/Analysis-20170609-v0/QCD_HT1500to2000/QCD_HT1500to2000_TuneCUETP8M1_13TeV-madgraphMLM-pythia8/Analysis-20170609/170609_100407/0000/ntuple_340.root
/store/user/yoshin/EmJetAnalysis/Analysis-20170609-v0/QCD_HT1500to2000/QCD_HT1500to2000_TuneCUETP8M1_13TeV-madgraphMLM-pythia8/Analysis-20170609/170609_100407/0000/ntuple_341.root
/store/user/yoshin/EmJetAnalysis/Analysis-20170609-v0/QCD_HT1500to2000/QCD_HT1500to2000_TuneCUETP8M1_13TeV-madgraphMLM-pythia8/Analysis-20170609/170609_100407/0000/ntuple_342.root
/store/user/yoshin/EmJetAnalysis/Analysis-20170609-v0/QCD_HT1500to2000/QCD_HT1500to2000_TuneCUETP8M1_13TeV-madgraphMLM-pythia8/Analysis-20170609/170609_100407/0000/ntuple_343.root
/store/user/yoshin/EmJetAnalysis/Analysis-20170609-v0/QCD_HT1500to2000/QCD_HT1500to2000_TuneCUETP8M1_13TeV-madgraphMLM-pythia8/Analysis-20170609/170609_100407/0000/ntuple_344.root
/store/user/yoshin/EmJetAnalysis/Analysis-20170609-v0/QCD_HT1500to2000/QCD_HT1500to2000_TuneCUETP8M1_13TeV-madgraphMLM-pythia8/Analysis-20170609/170609_100407/0000/ntuple_345.root
/store/user/yoshin/EmJetAnalysis/Analysis-20170609-v0/QCD_HT1500to2000/QCD_HT1500to2000_TuneCUETP8M1_13TeV-madgraphMLM-pythia8/Analysis-20170609/170609_100407/0000/ntuple_346.root
/store/user/yoshin/EmJetAnalysis/Analysis-20170609-v0/QCD_HT1500to2000/QCD_HT1500to2000_TuneCUETP8M1_13TeV-madgraphMLM-pythia8/Analysis-20170609/170609_100407/0000/ntuple_347.root
/store/user/yoshin/EmJetAnalysis/Analysis-20170609-v0/QCD_HT1500to2000/QCD_HT1500to2000_TuneCUETP8M1_13TeV-madgraphMLM-pythia8/Analysis-20170609/170609_100407/0000/ntuple_348.root
/store/user/yoshin/EmJetAnalysis/Analysis-20170609-v0/QCD_HT1500to2000/QCD_HT1500to2000_TuneCUETP8M1_13TeV-madgraphMLM-pythia8/Analysis-20170609/170609_100407/0000/ntuple_349.root
/store/user/yoshin/EmJetAnalysis/Analysis-20170609-v0/QCD_HT1500to2000/QCD_HT1500to2000_TuneCUETP8M1_13TeV-madgraphMLM-pythia8/Analysis-20170609/170609_100407/0000/ntuple_35.root
/store/user/yoshin/EmJetAnalysis/Analysis-20170609-v0/QCD_HT1500to2000/QCD_HT1500to2000_TuneCUETP8M1_13TeV-madgraphMLM-pythia8/Analysis-20170609/170609_100407/0000/ntuple_350.root
/store/user/yoshin/EmJetAnalysis/Analysis-20170609-v0/QCD_HT1500to2000/QCD_HT1500to2000_TuneCUETP8M1_13TeV-madgraphMLM-pythia8/Analysis-20170609/170609_100407/0000/ntuple_351.root
/store/user/yoshin/EmJetAnalysis/Analysis-20170609-v0/QCD_HT1500to2000/QCD_HT1500to2000_TuneCUETP8M1_13TeV-madgraphMLM-pythia8/Analysis-20170609/170609_100407/0000/ntuple_352.root
/store/user/yoshin/EmJetAnalysis/Analysis-20170609-v0/QCD_HT1500to2000/QCD_HT1500to2000_TuneCUETP8M1_13TeV-madgraphMLM-pythia8/Analysis-20170609/170609_100407/0000/ntuple_353.root
/store/user/yoshin/EmJetAnalysis/Analysis-20170609-v0/QCD_HT1500to2000/QCD_HT1500to2000_TuneCUETP8M1_13TeV-madgraphMLM-pythia8/Analysis-20170609/170609_100407/0000/ntuple_354.root
/store/user/yoshin/EmJetAnalysis/Analysis-20170609-v0/QCD_HT1500to2000/QCD_HT1500to2000_TuneCUETP8M1_13TeV-madgraphMLM-pythia8/Analysis-20170609/170609_100407/0000/ntuple_355.root
/store/user/yoshin/EmJetAnalysis/Analysis-20170609-v0/QCD_HT1500to2000/QCD_HT1500to2000_TuneCUETP8M1_13TeV-madgraphMLM-pythia8/Analysis-20170609/170609_100407/0000/ntuple_356.root
/store/user/yoshin/EmJetAnalysis/Analysis-20170609-v0/QCD_HT1500to2000/QCD_HT1500to2000_TuneCUETP8M1_13TeV-madgraphMLM-pythia8/Analysis-20170609/170609_100407/0000/ntuple_357.root
/store/user/yoshin/EmJetAnalysis/Analysis-20170609-v0/QCD_HT1500to2000/QCD_HT1500to2000_TuneCUETP8M1_13TeV-madgraphMLM-pythia8/Analysis-20170609/170609_100407/0000/ntuple_358.root
/store/user/yoshin/EmJetAnalysis/Analysis-20170609-v0/QCD_HT1500to2000/QCD_HT1500to2000_TuneCUETP8M1_13TeV-madgraphMLM-pythia8/Analysis-20170609/170609_100407/0000/ntuple_359.root
/store/user/yoshin/EmJetAnalysis/Analysis-20170609-v0/QCD_HT1500to2000/QCD_HT1500to2000_TuneCUETP8M1_13TeV-madgraphMLM-pythia8/Analysis-20170609/170609_100407/0000/ntuple_36.root
/store/user/yoshin/EmJetAnalysis/Analysis-20170609-v0/QCD_HT1500to2000/QCD_HT1500to2000_TuneCUETP8M1_13TeV-madgraphMLM-pythia8/Analysis-20170609/170609_100407/0000/ntuple_360.root
/store/user/yoshin/EmJetAnalysis/Analysis-20170609-v0/QCD_HT1500to2000/QCD_HT1500to2000_TuneCUETP8M1_13TeV-madgraphMLM-pythia8/Analysis-20170609/170609_100407/0000/ntuple_361.root
/store/user/yoshin/EmJetAnalysis/Analysis-20170609-v0/QCD_HT1500to2000/QCD_HT1500to2000_TuneCUETP8M1_13TeV-madgraphMLM-pythia8/Analysis-20170609/170609_100407/0000/ntuple_362.root
/store/user/yoshin/EmJetAnalysis/Analysis-20170609-v0/QCD_HT1500to2000/QCD_HT1500to2000_TuneCUETP8M1_13TeV-madgraphMLM-pythia8/Analysis-20170609/170609_100407/0000/ntuple_363.root
/store/user/yoshin/EmJetAnalysis/Analysis-20170609-v0/QCD_HT1500to2000/QCD_HT1500to2000_TuneCUETP8M1_13TeV-madgraphMLM-pythia8/Analysis-20170609/170609_100407/0000/ntuple_364.root
/store/user/yoshin/EmJetAnalysis/Analysis-20170609-v0/QCD_HT1500to2000/QCD_HT1500to2000_TuneCUETP8M1_13TeV-madgraphMLM-pythia8/Analysis-20170609/170609_100407/0000/ntuple_365.root
/store/user/yoshin/EmJetAnalysis/Analysis-20170609-v0/QCD_HT1500to2000/QCD_HT1500to2000_TuneCUETP8M1_13TeV-madgraphMLM-pythia8/Analysis-20170609/170609_100407/0000/ntuple_366.root
/store/user/yoshin/EmJetAnalysis/Analysis-20170609-v0/QCD_HT1500to2000/QCD_HT1500to2000_TuneCUETP8M1_13TeV-madgraphMLM-pythia8/Analysis-20170609/170609_100407/0000/ntuple_367.root
/store/user/yoshin/EmJetAnalysis/Analysis-20170609-v0/QCD_HT1500to2000/QCD_HT1500to2000_TuneCUETP8M1_13TeV-madgraphMLM-pythia8/Analysis-20170609/170609_100407/0000/ntuple_368.root
/store/user/yoshin/EmJetAnalysis/Analysis-20170609-v0/QCD_HT1500to2000/QCD_HT1500to2000_TuneCUETP8M1_13TeV-madgraphMLM-pythia8/Analysis-20170609/170609_100407/0000/ntuple_369.root
/store/user/yoshin/EmJetAnalysis/Analysis-20170609-v0/QCD_HT1500to2000/QCD_HT1500to2000_TuneCUETP8M1_13TeV-madgraphMLM-pythia8/Analysis-20170609/170609_100407/0000/ntuple_37.root
/store/user/yoshin/EmJetAnalysis/Analysis-20170609-v0/QCD_HT1500to2000/QCD_HT1500to2000_TuneCUETP8M1_13TeV-madgraphMLM-pythia8/Analysis-20170609/170609_100407/0000/ntuple_370.root
/store/user/yoshin/EmJetAnalysis/Analysis-20170609-v0/QCD_HT1500to2000/QCD_HT1500to2000_TuneCUETP8M1_13TeV-madgraphMLM-pythia8/Analysis-20170609/170609_100407/0000/ntuple_371.root
/store/user/yoshin/EmJetAnalysis/Analysis-20170609-v0/QCD_HT1500to2000/QCD_HT1500to2000_TuneCUETP8M1_13TeV-madgraphMLM-pythia8/Analysis-20170609/170609_100407/0000/ntuple_374.root
/store/user/yoshin/EmJetAnalysis/Analysis-20170609-v0/QCD_HT1500to2000/QCD_HT1500to2000_TuneCUETP8M1_13TeV-madgraphMLM-pythia8/Analysis-20170609/170609_100407/0000/ntuple_375.root
/store/user/yoshin/EmJetAnalysis/Analysis-20170609-v0/QCD_HT1500to2000/QCD_HT1500to2000_TuneCUETP8M1_13TeV-madgraphMLM-pythia8/Analysis-20170609/170609_100407/0000/ntuple_376.root
/store/user/yoshin/EmJetAnalysis/Analysis-20170609-v0/QCD_HT1500to2000/QCD_HT1500to2000_TuneCUETP8M1_13TeV-madgraphMLM-pythia8/Analysis-20170609/170609_100407/0000/ntuple_377.root
/store/user/yoshin/EmJetAnalysis/Analysis-20170609-v0/QCD_HT1500to2000/QCD_HT1500to2000_TuneCUETP8M1_13TeV-madgraphMLM-pythia8/Analysis-20170609/170609_100407/0000/ntuple_378.root
/store/user/yoshin/EmJetAnalysis/Analysis-20170609-v0/QCD_HT1500to2000/QCD_HT1500to2000_TuneCUETP8M1_13TeV-madgraphMLM-pythia8/Analysis-20170609/170609_100407/0000/ntuple_379.root
/store/user/yoshin/EmJetAnalysis/Analysis-20170609-v0/QCD_HT1500to2000/QCD_HT1500to2000_TuneCUETP8M1_13TeV-madgraphMLM-pythia8/Analysis-20170609/170609_100407/0000/ntuple_38.root
/store/user/yoshin/EmJetAnalysis/Analysis-20170609-v0/QCD_HT1500to2000/QCD_HT1500to2000_TuneCUETP8M1_13TeV-madgraphMLM-pythia8/Analysis-20170609/170609_100407/0000/ntuple_380.root
/store/user/yoshin/EmJetAnalysis/Analysis-20170609-v0/QCD_HT1500to2000/QCD_HT1500to2000_TuneCUETP8M1_13TeV-madgraphMLM-pythia8/Analysis-20170609/170609_100407/0000/ntuple_381.root
/store/user/yoshin/EmJetAnalysis/Analysis-20170609-v0/QCD_HT1500to2000/QCD_HT1500to2000_TuneCUETP8M1_13TeV-madgraphMLM-pythia8/Analysis-20170609/170609_100407/0000/ntuple_382.root
/store/user/yoshin/EmJetAnalysis/Analysis-20170609-v0/QCD_HT1500to2000/QCD_HT1500to2000_TuneCUETP8M1_13TeV-madgraphMLM-pythia8/Analysis-20170609/170609_100407/0000/ntuple_383.root
/store/user/yoshin/EmJetAnalysis/Analysis-20170609-v0/QCD_HT1500to2000/QCD_HT1500to2000_TuneCUETP8M1_13TeV-madgraphMLM-pythia8/Analysis-20170609/170609_100407/0000/ntuple_384.root
/store/user/yoshin/EmJetAnalysis/Analysis-20170609-v0/QCD_HT1500to2000/QCD_HT1500to2000_TuneCUETP8M1_13TeV-madgraphMLM-pythia8/Analysis-20170609/170609_100407/0000/ntuple_385.root
/store/user/yoshin/EmJetAnalysis/Analysis-20170609-v0/QCD_HT1500to2000/QCD_HT1500to2000_TuneCUETP8M1_13TeV-madgraphMLM-pythia8/Analysis-20170609/170609_100407/0000/ntuple_386.root
/store/user/yoshin/EmJetAnalysis/Analysis-20170609-v0/QCD_HT1500to2000/QCD_HT1500to2000_TuneCUETP8M1_13TeV-madgraphMLM-pythia8/Analysis-20170609/170609_100407/0000/ntuple_387.root
/store/user/yoshin/EmJetAnalysis/Analysis-20170609-v0/QCD_HT1500to2000/QCD_HT1500to2000_TuneCUETP8M1_13TeV-madgraphMLM-pythia8/Analysis-20170609/170609_100407/0000/ntuple_388.root
/store/user/yoshin/EmJetAnalysis/Analysis-20170609-v0/QCD_HT1500to2000/QCD_HT1500to2000_TuneCUETP8M1_13TeV-madgraphMLM-pythia8/Analysis-20170609/170609_100407/0000/ntuple_389.root
/store/user/yoshin/EmJetAnalysis/Analysis-20170609-v0/QCD_HT1500to2000/QCD_HT1500to2000_TuneCUETP8M1_13TeV-madgraphMLM-pythia8/Analysis-20170609/170609_100407/0000/ntuple_39.root
/store/user/yoshin/EmJetAnalysis/Analysis-20170609-v0/QCD_HT1500to2000/QCD_HT1500to2000_TuneCUETP8M1_13TeV-madgraphMLM-pythia8/Analysis-20170609/170609_100407/0000/ntuple_390.root
/store/user/yoshin/EmJetAnalysis/Analysis-20170609-v0/QCD_HT1500to2000/QCD_HT1500to2000_TuneCUETP8M1_13TeV-madgraphMLM-pythia8/Analysis-20170609/170609_100407/0000/ntuple_391.root
/store/user/yoshin/EmJetAnalysis/Analysis-20170609-v0/QCD_HT1500to2000/QCD_HT1500to2000_TuneCUETP8M1_13TeV-madgraphMLM-pythia8/Analysis-20170609/170609_100407/0000/ntuple_392.root
/store/user/yoshin/EmJetAnalysis/Analysis-20170609-v0/QCD_HT1500to2000/QCD_HT1500to2000_TuneCUETP8M1_13TeV-madgraphMLM-pythia8/Analysis-20170609/170609_100407/0000/ntuple_393.root
/store/user/yoshin/EmJetAnalysis/Analysis-20170609-v0/QCD_HT1500to2000/QCD_HT1500to2000_TuneCUETP8M1_13TeV-madgraphMLM-pythia8/Analysis-20170609/170609_100407/0000/ntuple_394.root
/store/user/yoshin/EmJetAnalysis/Analysis-20170609-v0/QCD_HT1500to2000/QCD_HT1500to2000_TuneCUETP8M1_13TeV-madgraphMLM-pythia8/Analysis-20170609/170609_100407/0000/ntuple_395.root
/store/user/yoshin/EmJetAnalysis/Analysis-20170609-v0/QCD_HT1500to2000/QCD_HT1500to2000_TuneCUETP8M1_13TeV-madgraphMLM-pythia8/Analysis-20170609/170609_100407/0000/ntuple_396.root
/store/user/yoshin/EmJetAnalysis/Analysis-20170609-v0/QCD_HT1500to2000/QCD_HT1500to2000_TuneCUETP8M1_13TeV-madgraphMLM-pythia8/Analysis-20170609/170609_100407/0000/ntuple_397.root
/store/user/yoshin/EmJetAnalysis/Analysis-20170609-v0/QCD_HT1500to2000/QCD_HT1500to2000_TuneCUETP8M1_13TeV-madgraphMLM-pythia8/Analysis-20170609/170609_100407/0000/ntuple_398.root
/store/user/yoshin/EmJetAnalysis/Analysis-20170609-v0/QCD_HT1500to2000/QCD_HT1500to2000_TuneCUETP8M1_13TeV-madgraphMLM-pythia8/Analysis-20170609/170609_100407/0000/ntuple_399.root
/store/user/yoshin/EmJetAnalysis/Analysis-20170609-v0/QCD_HT1500to2000/QCD_HT1500to2000_TuneCUETP8M1_13TeV-madgraphMLM-pythia8/Analysis-20170609/170609_100407/0000/ntuple_4.root
/store/user/yoshin/EmJetAnalysis/Analysis-20170609-v0/QCD_HT1500to2000/QCD_HT1500to2000_TuneCUETP8M1_13TeV-madgraphMLM-pythia8/Analysis-20170609/170609_100407/0000/ntuple_40.root
/store/user/yoshin/EmJetAnalysis/Analysis-20170609-v0/QCD_HT1500to2000/QCD_HT1500to2000_TuneCUETP8M1_13TeV-madgraphMLM-pythia8/Analysis-20170609/170609_100407/0000/ntuple_400.root
/store/user/yoshin/EmJetAnalysis/Analysis-20170609-v0/QCD_HT1500to2000/QCD_HT1500to2000_TuneCUETP8M1_13TeV-madgraphMLM-pythia8/Analysis-20170609/170609_100407/0000/ntuple_401.root
/store/user/yoshin/EmJetAnalysis/Analysis-20170609-v0/QCD_HT1500to2000/QCD_HT1500to2000_TuneCUETP8M1_13TeV-madgraphMLM-pythia8/Analysis-20170609/170609_100407/0000/ntuple_402.root
/store/user/yoshin/EmJetAnalysis/Analysis-20170609-v0/QCD_HT1500to2000/QCD_HT1500to2000_TuneCUETP8M1_13TeV-madgraphMLM-pythia8/Analysis-20170609/170609_100407/0000/ntuple_403.root
/store/user/yoshin/EmJetAnalysis/Analysis-20170609-v0/QCD_HT1500to2000/QCD_HT1500to2000_TuneCUETP8M1_13TeV-madgraphMLM-pythia8/Analysis-20170609/170609_100407/0000/ntuple_404.root
/store/user/yoshin/EmJetAnalysis/Analysis-20170609-v0/QCD_HT1500to2000/QCD_HT1500to2000_TuneCUETP8M1_13TeV-madgraphMLM-pythia8/Analysis-20170609/170609_100407/0000/ntuple_405.root
/store/user/yoshin/EmJetAnalysis/Analysis-20170609-v0/QCD_HT1500to2000/QCD_HT1500to2000_TuneCUETP8M1_13TeV-madgraphMLM-pythia8/Analysis-20170609/170609_100407/0000/ntuple_406.root
/store/user/yoshin/EmJetAnalysis/Analysis-20170609-v0/QCD_HT1500to2000/QCD_HT1500to2000_TuneCUETP8M1_13TeV-madgraphMLM-pythia8/Analysis-20170609/170609_100407/0000/ntuple_407.root
/store/user/yoshin/EmJetAnalysis/Analysis-20170609-v0/QCD_HT1500to2000/QCD_HT1500to2000_TuneCUETP8M1_13TeV-madgraphMLM-pythia8/Analysis-20170609/170609_100407/0000/ntuple_408.root
/store/user/yoshin/EmJetAnalysis/Analysis-20170609-v0/QCD_HT1500to2000/QCD_HT1500to2000_TuneCUETP8M1_13TeV-madgraphMLM-pythia8/Analysis-20170609/170609_100407/0000/ntuple_409.root
/store/user/yoshin/EmJetAnalysis/Analysis-20170609-v0/QCD_HT1500to2000/QCD_HT1500to2000_TuneCUETP8M1_13TeV-madgraphMLM-pythia8/Analysis-20170609/170609_100407/0000/ntuple_41.root
/store/user/yoshin/EmJetAnalysis/Analysis-20170609-v0/QCD_HT1500to2000/QCD_HT1500to2000_TuneCUETP8M1_13TeV-madgraphMLM-pythia8/Analysis-20170609/170609_100407/0000/ntuple_410.root
/store/user/yoshin/EmJetAnalysis/Analysis-20170609-v0/QCD_HT1500to2000/QCD_HT1500to2000_TuneCUETP8M1_13TeV-madgraphMLM-pythia8/Analysis-20170609/170609_100407/0000/ntuple_411.root
/store/user/yoshin/EmJetAnalysis/Analysis-20170609-v0/QCD_HT1500to2000/QCD_HT1500to2000_TuneCUETP8M1_13TeV-madgraphMLM-pythia8/Analysis-20170609/170609_100407/0000/ntuple_412.root
/store/user/yoshin/EmJetAnalysis/Analysis-20170609-v0/QCD_HT1500to2000/QCD_HT1500to2000_TuneCUETP8M1_13TeV-madgraphMLM-pythia8/Analysis-20170609/170609_100407/0000/ntuple_413.root
/store/user/yoshin/EmJetAnalysis/Analysis-20170609-v0/QCD_HT1500to2000/QCD_HT1500to2000_TuneCUETP8M1_13TeV-madgraphMLM-pythia8/Analysis-20170609/170609_100407/0000/ntuple_414.root
