/data/users/yhshin/EmJetAnalysis/Analysis-20171002-v2/mass_X_d_2000_mass_pi_d_5_tau_pi_d_100/EmergingJets_mass_X_d_2000_mass_pi_d_5_tau_pi_d_100_TuneCUETP8M1_13TeV_pythia8Mod/Analysis-20171002/171003_045103/0000/ntuple_10.root
/data/users/yhshin/EmJetAnalysis/Analysis-20171002-v2/mass_X_d_2000_mass_pi_d_5_tau_pi_d_100/EmergingJets_mass_X_d_2000_mass_pi_d_5_tau_pi_d_100_TuneCUETP8M1_13TeV_pythia8Mod/Analysis-20171002/171003_045103/0000/ntuple_11.root
/data/users/yhshin/EmJetAnalysis/Analysis-20171002-v2/mass_X_d_2000_mass_pi_d_5_tau_pi_d_100/EmergingJets_mass_X_d_2000_mass_pi_d_5_tau_pi_d_100_TuneCUETP8M1_13TeV_pythia8Mod/Analysis-20171002/171003_045103/0000/ntuple_12.root
/data/users/yhshin/EmJetAnalysis/Analysis-20171002-v2/mass_X_d_2000_mass_pi_d_5_tau_pi_d_100/EmergingJets_mass_X_d_2000_mass_pi_d_5_tau_pi_d_100_TuneCUETP8M1_13TeV_pythia8Mod/Analysis-20171002/171003_045103/0000/ntuple_13.root
/data/users/yhshin/EmJetAnalysis/Analysis-20171002-v2/mass_X_d_2000_mass_pi_d_5_tau_pi_d_100/EmergingJets_mass_X_d_2000_mass_pi_d_5_tau_pi_d_100_TuneCUETP8M1_13TeV_pythia8Mod/Analysis-20171002/171003_045103/0000/ntuple_14.root
/data/users/yhshin/EmJetAnalysis/Analysis-20171002-v2/mass_X_d_2000_mass_pi_d_5_tau_pi_d_100/EmergingJets_mass_X_d_2000_mass_pi_d_5_tau_pi_d_100_TuneCUETP8M1_13TeV_pythia8Mod/Analysis-20171002/171003_045103/0000/ntuple_15.root
/data/users/yhshin/EmJetAnalysis/Analysis-20171002-v2/mass_X_d_2000_mass_pi_d_5_tau_pi_d_100/EmergingJets_mass_X_d_2000_mass_pi_d_5_tau_pi_d_100_TuneCUETP8M1_13TeV_pythia8Mod/Analysis-20171002/171003_045103/0000/ntuple_16.root
/data/users/yhshin/EmJetAnalysis/Analysis-20171002-v2/mass_X_d_2000_mass_pi_d_5_tau_pi_d_100/EmergingJets_mass_X_d_2000_mass_pi_d_5_tau_pi_d_100_TuneCUETP8M1_13TeV_pythia8Mod/Analysis-20171002/171003_045103/0000/ntuple_17.root
/data/users/yhshin/EmJetAnalysis/Analysis-20171002-v2/mass_X_d_2000_mass_pi_d_5_tau_pi_d_100/EmergingJets_mass_X_d_2000_mass_pi_d_5_tau_pi_d_100_TuneCUETP8M1_13TeV_pythia8Mod/Analysis-20171002/171003_045103/0000/ntuple_18.root
/data/users/yhshin/EmJetAnalysis/Analysis-20171002-v2/mass_X_d_2000_mass_pi_d_5_tau_pi_d_100/EmergingJets_mass_X_d_2000_mass_pi_d_5_tau_pi_d_100_TuneCUETP8M1_13TeV_pythia8Mod/Analysis-20171002/171003_045103/0000/ntuple_19.root
/data/users/yhshin/EmJetAnalysis/Analysis-20171002-v2/mass_X_d_2000_mass_pi_d_5_tau_pi_d_100/EmergingJets_mass_X_d_2000_mass_pi_d_5_tau_pi_d_100_TuneCUETP8M1_13TeV_pythia8Mod/Analysis-20171002/171003_045103/0000/ntuple_1.root
/data/users/yhshin/EmJetAnalysis/Analysis-20171002-v2/mass_X_d_2000_mass_pi_d_5_tau_pi_d_100/EmergingJets_mass_X_d_2000_mass_pi_d_5_tau_pi_d_100_TuneCUETP8M1_13TeV_pythia8Mod/Analysis-20171002/171003_045103/0000/ntuple_20.root
/data/users/yhshin/EmJetAnalysis/Analysis-20171002-v2/mass_X_d_2000_mass_pi_d_5_tau_pi_d_100/EmergingJets_mass_X_d_2000_mass_pi_d_5_tau_pi_d_100_TuneCUETP8M1_13TeV_pythia8Mod/Analysis-20171002/171003_045103/0000/ntuple_21.root
/data/users/yhshin/EmJetAnalysis/Analysis-20171002-v2/mass_X_d_2000_mass_pi_d_5_tau_pi_d_100/EmergingJets_mass_X_d_2000_mass_pi_d_5_tau_pi_d_100_TuneCUETP8M1_13TeV_pythia8Mod/Analysis-20171002/171003_045103/0000/ntuple_22.root
/data/users/yhshin/EmJetAnalysis/Analysis-20171002-v2/mass_X_d_2000_mass_pi_d_5_tau_pi_d_100/EmergingJets_mass_X_d_2000_mass_pi_d_5_tau_pi_d_100_TuneCUETP8M1_13TeV_pythia8Mod/Analysis-20171002/171003_045103/0000/ntuple_23.root
/data/users/yhshin/EmJetAnalysis/Analysis-20171002-v2/mass_X_d_2000_mass_pi_d_5_tau_pi_d_100/EmergingJets_mass_X_d_2000_mass_pi_d_5_tau_pi_d_100_TuneCUETP8M1_13TeV_pythia8Mod/Analysis-20171002/171003_045103/0000/ntuple_24.root
/data/users/yhshin/EmJetAnalysis/Analysis-20171002-v2/mass_X_d_2000_mass_pi_d_5_tau_pi_d_100/EmergingJets_mass_X_d_2000_mass_pi_d_5_tau_pi_d_100_TuneCUETP8M1_13TeV_pythia8Mod/Analysis-20171002/171003_045103/0000/ntuple_25.root
/data/users/yhshin/EmJetAnalysis/Analysis-20171002-v2/mass_X_d_2000_mass_pi_d_5_tau_pi_d_100/EmergingJets_mass_X_d_2000_mass_pi_d_5_tau_pi_d_100_TuneCUETP8M1_13TeV_pythia8Mod/Analysis-20171002/171003_045103/0000/ntuple_26.root
/data/users/yhshin/EmJetAnalysis/Analysis-20171002-v2/mass_X_d_2000_mass_pi_d_5_tau_pi_d_100/EmergingJets_mass_X_d_2000_mass_pi_d_5_tau_pi_d_100_TuneCUETP8M1_13TeV_pythia8Mod/Analysis-20171002/171003_045103/0000/ntuple_27.root
/data/users/yhshin/EmJetAnalysis/Analysis-20171002-v2/mass_X_d_2000_mass_pi_d_5_tau_pi_d_100/EmergingJets_mass_X_d_2000_mass_pi_d_5_tau_pi_d_100_TuneCUETP8M1_13TeV_pythia8Mod/Analysis-20171002/171003_045103/0000/ntuple_28.root
/data/users/yhshin/EmJetAnalysis/Analysis-20171002-v2/mass_X_d_2000_mass_pi_d_5_tau_pi_d_100/EmergingJets_mass_X_d_2000_mass_pi_d_5_tau_pi_d_100_TuneCUETP8M1_13TeV_pythia8Mod/Analysis-20171002/171003_045103/0000/ntuple_29.root
/data/users/yhshin/EmJetAnalysis/Analysis-20171002-v2/mass_X_d_2000_mass_pi_d_5_tau_pi_d_100/EmergingJets_mass_X_d_2000_mass_pi_d_5_tau_pi_d_100_TuneCUETP8M1_13TeV_pythia8Mod/Analysis-20171002/171003_045103/0000/ntuple_2.root
/data/users/yhshin/EmJetAnalysis/Analysis-20171002-v2/mass_X_d_2000_mass_pi_d_5_tau_pi_d_100/EmergingJets_mass_X_d_2000_mass_pi_d_5_tau_pi_d_100_TuneCUETP8M1_13TeV_pythia8Mod/Analysis-20171002/171003_045103/0000/ntuple_30.root
/data/users/yhshin/EmJetAnalysis/Analysis-20171002-v2/mass_X_d_2000_mass_pi_d_5_tau_pi_d_100/EmergingJets_mass_X_d_2000_mass_pi_d_5_tau_pi_d_100_TuneCUETP8M1_13TeV_pythia8Mod/Analysis-20171002/171003_045103/0000/ntuple_3.root
/data/users/yhshin/EmJetAnalysis/Analysis-20171002-v2/mass_X_d_2000_mass_pi_d_5_tau_pi_d_100/EmergingJets_mass_X_d_2000_mass_pi_d_5_tau_pi_d_100_TuneCUETP8M1_13TeV_pythia8Mod/Analysis-20171002/171003_045103/0000/ntuple_4.root
/data/users/yhshin/EmJetAnalysis/Analysis-20171002-v2/mass_X_d_2000_mass_pi_d_5_tau_pi_d_100/EmergingJets_mass_X_d_2000_mass_pi_d_5_tau_pi_d_100_TuneCUETP8M1_13TeV_pythia8Mod/Analysis-20171002/171003_045103/0000/ntuple_5.root
/data/users/yhshin/EmJetAnalysis/Analysis-20171002-v2/mass_X_d_2000_mass_pi_d_5_tau_pi_d_100/EmergingJets_mass_X_d_2000_mass_pi_d_5_tau_pi_d_100_TuneCUETP8M1_13TeV_pythia8Mod/Analysis-20171002/171003_045103/0000/ntuple_6.root
/data/users/yhshin/EmJetAnalysis/Analysis-20171002-v2/mass_X_d_2000_mass_pi_d_5_tau_pi_d_100/EmergingJets_mass_X_d_2000_mass_pi_d_5_tau_pi_d_100_TuneCUETP8M1_13TeV_pythia8Mod/Analysis-20171002/171003_045103/0000/ntuple_7.root
/data/users/yhshin/EmJetAnalysis/Analysis-20171002-v2/mass_X_d_2000_mass_pi_d_5_tau_pi_d_100/EmergingJets_mass_X_d_2000_mass_pi_d_5_tau_pi_d_100_TuneCUETP8M1_13TeV_pythia8Mod/Analysis-20171002/171003_045103/0000/ntuple_8.root
/data/users/yhshin/EmJetAnalysis/Analysis-20171002-v2/mass_X_d_2000_mass_pi_d_5_tau_pi_d_100/EmergingJets_mass_X_d_2000_mass_pi_d_5_tau_pi_d_100_TuneCUETP8M1_13TeV_pythia8Mod/Analysis-20171002/171003_045103/0000/ntuple_9.root
